%YAML 1.1
%TAG !u! tag:unity3d.com,2011:
--- !u!114 &11400000
MonoBehaviour:
  m_ObjectHideFlags: 0
  m_PrefabParentObject: {fileID: 0}
  m_PrefabInternal: {fileID: 0}
  m_GameObject: {fileID: 0}
  m_Enabled: 1
  m_EditorHideFlags: 0
  m_Script: {fileID: 11500000, guid: 12ea50e0ca4cb774282b4a5f96dcc612, type: 3}
  m_Name: grzybek2_Data
  m_EditorClassIdentifier: 
  dataName: grzybek2
  dragonBonesJSON: {fileID: 4900000, guid: 202acf60d8e07a5449dfbfd97fda6871, type: 3}
  textureAtlas:
  - textureAtlasJSON: {fileID: 4900000, guid: c219cfe3dd099a84f937b577049849b3, type: 3}
    texture: {fileID: 2800000, guid: 35a93df6567ade0438cb3d3eb0fc06b1, type: 3}
    material: {fileID: 2100000, guid: 12df08535aa0a254f9f11900d693f485, type: 2}
    uiMaterial: {fileID: 2100000, guid: 84405385c82c2bd45afda8176ce364d5, type: 2}
